<svg xmlns="http://www.w3.org/2000/svg" xmlns:xlink="http://www.w3.org/1999/xlink" width="30" height="30" viewBox="0 0 30 30">
  <defs>
    <clipPath id="clip-twitter">
      <rect width="30" height="30"/>
    </clipPath>
  </defs>
  <g id="twitter" clip-path="url(#clip-twitter)">
    <path id="twitter_icon" data-name="twitter icon" d="M20.559.005V0H22l.527.106a5.639,5.639,0,0,1,.957.269,6.809,6.809,0,0,1,.832.388,7.915,7.915,0,0,1,.73.452,4.491,4.491,0,0,1,.583.483.808.808,0,0,0,.8.133,10.65,10.65,0,0,0,1.165-.348q.624-.222,1.234-.5T29.57.632l.139-.083L29.714.54l.029-.014.029-.014L29.8.5l.029-.014.005-.008L29.842.47,29.85.465l.005-.008.029-.008.029-.005-.005.042L29.9.526l-.014.042L29.871.61l-.014.029-.014.029-.014.042A.965.965,0,0,0,29.8.819a4.656,4.656,0,0,1-.264.555,6.94,6.94,0,0,1-.624.985,4.843,4.843,0,0,1-.675.754q-.3.257-.4.361a1.191,1.191,0,0,1-.236.194l-.139.092-.029.014-.029.014L27.4,3.8,27.4,3.8l-.008.005-.005.008-.029.014-.029.014-.005.008-.008.005-.008.005L27.3,3.87l-.005.008-.008.005-.008.005L27.27,3.9h.14l.777-.167a13.9,13.9,0,0,0,1.483-.4l.749-.25.083-.029.042-.014.029-.014.029-.014.029-.014.029-.014.056-.008.056-.005v.056l-.014.005-.014.008-.005.008-.008.005-.008.005-.005.008-.005.008-.008.005-.008.005-.005.008-.005.008-.008.005-.014.029-.014.029-.008.005-.352.472a3.9,3.9,0,0,1-.375.472q-.029.008-.078.083a7.949,7.949,0,0,1-.588.619,13.962,13.962,0,0,1-1.06.963,1.314,1.314,0,0,0-.527,1.043q-.008.616-.064,1.393t-.208,1.679a20.012,20.012,0,0,1-.472,2.039,18.54,18.54,0,0,1-.777,2.22,17.293,17.293,0,0,1-.957,1.942q-.5.86-.916,1.457t-.847,1.124q-.43.527-1.088,1.187t-.721.721q-.064.061-.544.456t-1.027.794a11.872,11.872,0,0,1-1,.657q-.456.264-1.1.6a13.137,13.137,0,0,1-1.393.633q-.749.291-1.581.542a14.444,14.444,0,0,1-1.609.388q-.777.139-1.762.236l-.985.1V25h-1.8v-.014l-.236-.014q-.236-.014-.388-.029t-1.151-.153q-1-.139-1.569-.278t-1.691-.528A16.467,16.467,0,0,1,1.837,23.2q-.8-.394-1-.5t-.45-.255l-.25-.153-.005-.008-.008-.005-.008-.005-.005-.008-.029-.014-.029-.014-.005-.008-.008-.005-.008-.005,0-.009L.023,22.2.015,22.2H0V22.14l.029.005.029.008.125.014q.125.014.68.042t1.179,0a12.408,12.408,0,0,0,1.276-.125,14.377,14.377,0,0,0,1.54-.333,11.377,11.377,0,0,0,1.632-.56q.742-.327,1.055-.488a10.264,10.264,0,0,0,.949-.588l.634-.43.005-.008.008-.005.008-.005.005-.008.005-.008.008-.005.008-.005.005-.008.029-.008.029-.005.005-.029.008-.029.008-.005.005-.008-.222-.014-.43-.029a4.17,4.17,0,0,1-.652-.125,6.258,6.258,0,0,1-.957-.333,7.379,7.379,0,0,1-1-.527,4.915,4.915,0,0,1-.7-.508q-.214-.2-.555-.566a5.614,5.614,0,0,1-.588-.757,6.806,6.806,0,0,1-.477-.9l-.231-.5-.014-.042-.014-.042-.008-.029-.005-.029.042.005.042.008L3.8,15.2a6.781,6.781,0,0,0,.957.029,7.411,7.411,0,0,0,.9-.056q.25-.042.305-.056l.056-.014.069-.014.069-.014.005-.008.008-.005.008-.005.005-.008-.054-.014-.056-.014-.056-.014L5.966,15l-.056-.014q-.055-.014-.194-.056t-.749-.305A5.728,5.728,0,0,1,4,14.107a6.706,6.706,0,0,1-.688-.547,7.851,7.851,0,0,1-.713-.77,5.55,5.55,0,0,1-.7-1.1A6.665,6.665,0,0,1,1.444,10.5a6.44,6.44,0,0,1-.2-1.151l-.05-.583.029.005.029.008.029.014.029.014.029.014.029.014.43.194a5.425,5.425,0,0,0,1.068.333q.638.139.763.153l.125.014H4L4,9.522l-.008-.005L3.98,9.511,3.974,9.5l-.005-.008L3.96,9.489l-.008-.005-.005-.008-.029-.014L3.89,9.448l-.005-.008-.008-.005-.008-.005L3.862,9.42l-.029-.014-.029-.014L3.8,9.384l-.239-.178a3.638,3.638,0,0,1-.481-.453q-.25-.278-.5-.583a4.5,4.5,0,0,1-.445-.652,7.9,7.9,0,0,1-.411-.882A6.263,6.263,0,0,1,1.4,5.562a6.112,6.112,0,0,1-.125-1.068,6.726,6.726,0,0,1,.029-.9,5.893,5.893,0,0,1,.166-.845,6.594,6.594,0,0,1,.361-1l.236-.528.015-.042L2.1,1.138,2.1,1.132l.005-.008.005-.008.008-.005.008.005.005.008.005.008.008.005.008.005.005.008.005.008.008.005.014.029.014.029.008.005.005.008.374.415q.375.416.888.93a5.217,5.217,0,0,0,.568.533.406.406,0,0,1,.139.127,5.663,5.663,0,0,0,.555.491q.472.388,1.234.9T7.67,5.646a16.514,16.514,0,0,0,2,.9q1.068.4,1.5.527t1.47.319q1.041.194,1.569.25t.721.064l.194.005-.005-.042-.008-.042-.056-.347A6.519,6.519,0,0,1,15,6.313a6.367,6.367,0,0,1,.1-1.151,6.82,6.82,0,0,1,.291-1.068,5.706,5.706,0,0,1,.381-.87,8.543,8.543,0,0,1,.494-.74,5.982,5.982,0,0,1,.791-.86,5.835,5.835,0,0,1,1.11-.791A7.214,7.214,0,0,1,19.31.305,5.365,5.365,0,0,1,20.2.069a3.086,3.086,0,0,0,.361-.064Z" transform="translate(-0.23 2.66)" fill="#b1b1b1"/>
  </g>
</svg>
