<svg xmlns="http://www.w3.org/2000/svg" xmlns:xlink="http://www.w3.org/1999/xlink" width="30" height="30" viewBox="0 0 30 30">
  <defs>
    <clipPath id="clip-fb">
      <rect width="30" height="30"/>
    </clipPath>
  </defs>
  <g id="fb" clip-path="url(#clip-fb)">
    <path id="facebook_icon" data-name="facebook icon" d="M98.54,42.828V29.144h4.594l.688-5.333H98.54v-3.4c0-1.544.429-2.6,2.643-2.6h2.824V13.038a37.849,37.849,0,0,0-4.115-.21c-4.072,0-6.859,2.485-6.859,7.049v3.933h-4.6v5.333h4.6V42.828h5.507Z" transform="translate(-81.428 -12.828)" fill="#b1b1b1"/>
  </g>
</svg>
